Into the (Bayesian) Multiverse!
…
estimate: the beta estimate in the regression model for the given x term of interest (or the ‘slope’ for a continuous predictor). Here, these beta estimates represent estimates for age-related change in amygdala reactivity, such that negative estimates indicate age-related decreases in amygdala reactivity.

std.error: The standard error about the beta estimate

statistic: The t-statistic for the beta estimate

conf.low: The lower bound of the 95% confidence interval for the beta estimate

conf.high: The upper bound of the 95% confidence interval for the beta estimate

all of the fit_ columns provide information on the goodness-of-fit of the model more generally (i.e. log likelihood, AIC, BIC), as well as the residual degrees of freedom.

specs

## # A tibble: 64 x 18
##    x     y     model controls effect group estimate std.error statistic conf.low
##    <chr> <chr> <chr> <chr>    <chr>  <chr>    <dbl>     <dbl>     <dbl>    <dbl>
##  1 age   ho_r… lmer… block    fixed  <NA>   -0.0416    0.0145     -2.87  -0.0700
##  2 age   ho_l… lmer… block    fixed  <NA>   -0.0390    0.0146     -2.67  -0.0677
##  3 age   ho_r… lmer… block    fixed  <NA>   -0.0423    0.0142     -2.97  -0.0702
##  4 age   ho_l… lmer… block    fixed  <NA>   -0.0298    0.0135     -2.21  -0.0562
##  5 age   nati… lmer… block    fixed  <NA>   -0.0313    0.0159     -1.97  -0.0624
##  6 age   nati… lmer… block    fixed  <NA>   -0.0303    0.0156     -1.94  -0.0609
##  7 age   nati… lmer… block    fixed  <NA>   -0.0318    0.0157     -2.03  -0.0624
##  8 age   nati… lmer… block    fixed  <NA>   -0.0269    0.0142     -1.89  -0.0548
##  9 age   ho_r… lmer… scanner  fixed  <NA>   -0.0405    0.0146     -2.78  -0.0690
## 10 age   ho_l… lmer… scanner  fixed  <NA>   -0.0386    0.0147     -2.63  -0.0674
## # … with 54 more rows, and 8 more variables: conf.high <dbl>, fit_sigma <dbl>,
## #   fit_logLik <dbl>, fit_AIC <dbl>, fit_BIC <dbl>, fit_REMLcrit <dbl>,
## #   fit_df.residual <int>, subsets <chr>
…
brms_specs = specr::run_specs(df = fake_data,
                         x = 'age', y = outcomes, 
                         controls = c('block', 'scanner'),
                         model = 'brms_model_with_motion',
                         subsets = list(grp = 'not_studied'), 
                         all.comb = TRUE)

3C. Check out Bayesian model summaries

The summary here is quite similar to when we used the lme4 model, only now the estimate is the median estimate for the x term (age) across posterior samples, and conf.low and conf.high represent the bounds of the 95% posterior interval.

brms_specs

## # A tibble: 64 x 15
##    x     y     model controls effect component group estimate std.error conf.low
##    <chr> <chr> <chr> <chr>    <chr>  <chr>     <chr>    <dbl>     <dbl>    <dbl>
##  1 age   ho_r… brms… block    fixed  cond      <NA>   -0.0390    0.0159  -0.0691
##  2 age   ho_l… brms… block    fixed  cond      <NA>   -0.0380    0.0154  -0.0677
##  3 age   ho_r… brms… block    fixed  cond      <NA>   -0.0411    0.0150  -0.0705
##  4 age   ho_l… brms… block    fixed  cond      <NA>   -0.0281    0.0144  -0.0552
##  5 age   nati… brms… block    fixed  cond      <NA>   -0.0269    0.0174  -0.0607
##  6 age   nati… brms… block    fixed  cond      <NA>   -0.0297    0.0165  -0.0624
##  7 age   nati… brms… block    fixed  cond      <NA>   -0.0302    0.0171  -0.0628
##  8 age   nati… brms… block    fixed  cond      <NA>   -0.0261    0.0153  -0.0561
##  9 age   ho_r… brms… scanner  fixed  cond      <NA>   -0.0384    0.0157  -0.0685
## 10 age   ho_l… brms… scanner  fixed  cond      <NA>   -0.0384    0.0152  -0.0664
## # … with 54 more rows, and 5 more variables: conf.high <dbl>,
## #   fit_algorithm <chr>, fit_pss <dbl>, fit_nobs <int>, subsets <chr>
…
